---------------------------------------------------------------
	'Auth-Default' is the default ion auth controller 
	// routes are configured for hmvc purpose. 'auth' to 'users/auth'

#To use this in a fresh HMVC project name must be changed to 'Auth'.  

#To use this in a fresh  MVC project name must be changed to 'Auth' and routes are needed to re-configure 
 to previous state .  'users/auth' to 'auth'
----------------------------------------------------------------
#Some custom functions are Accessed by using routs. see the modules route	 